{
  "project_info": {
    "project_number": "374121957516",
    "firebase_url": "https://jasonettewebapp.firebaseio.com",
    "project_id": "jasonettewebapp",
    "storage_bucket": "jasonettewebapp.appspot.com"
  },
  "client": [
    {
      "client_info": {
        "mobilesdk_app_id": "1:374121957516:android:e52c1686304ace46",
        "android_client_info": {
          "package_name": "enaruuar.jasonette.seed"
        }
      },
      "oauth_client": [
        {
          "client_id": "374121957516-6pinupmdvanu4vhk6gu3q7ddv3q2cuka.apps.googleusercontent.com",
          "client_type": 3
        }
      ],
      "api_key": [
        {
          "current_key": "AIzaSyA6K-FoQwypI9e5Ad6VY8kWN0YZvQIcRUU"
        }
      ],
      "services": {
        "appinvite_service": {
          "other_platform_oauth_client": [
            {
              "client_id": "374121957516-6pinupmdvanu4vhk6gu3q7ddv3q2cuka.apps.googleusercontent.com",
              "client_type": 3
            }
          ]
        }
      }
    }
  ],
  "configuration_version": "1"
}